{
   "SNR" : [101],
   "time" : [0],
   "runtime" : [8],
   "dataTime" : [8],
   "configuration" : [100, 101, 102, 103, 104, 105, 106, 107, 108, 109, 110, 111, 112, 113, 114, 115, 116, 117, 118, 119, 120, 121, 122, 123, 124, 125, 126, 127, 128, 129, 130, 131, 132, 133, 134, 135, 136, 137, 138, 139, 140, 141, 142, 143, 144, 145, 146, 147],
   "runCorrelator" : [1],
   "runPSS" : [0],
   "runPST" : [0],
   "delayUpdatePeriod" : [1],
   "useLocalDoppler" : [0],
   "forceDelayZero" : [0]
}
