{"sky":
   [
      [
         {"index":[1],
          "ascension":[20],
          "declination":[10],
          "rate":[1],
          "coarse":[124],
          "fine":[0],
          "RMS":[20],
          "sinusoids":[0],
          "polarisation":[1,0,0,-1],
          "BW":[180000],
          "skyImage":["single_pixel_center_of_field.png"],
          "skyImageDimension":[5]
          }
      ]
   ]
}