{
   "latitude":[-26.70331940],
   "longitude":[116.67081524],
   "altitude":[400],
   "offsets":
      [[0,0],
    [0,500],
    [0,1000],
    [0,1500],
    [0,2000],
    [0,2500],
    [0,3000],
    [0,3500],
    [0,4000],
    [0,4500],
    [0,5000],
    [0,5500],
    [0,6000],
    [0,6500],
    [0,7000],
    [0,7500],
    [0,8000],
    [0,8500],
    [0,9000],
    [0,9500],
    [0,10000],
    [0,10500],
    [0,11000],
    [0,11500],
    [0,12000],
    [0,12500],
    [0,13000],
    [0,13500],
    [0,14000],
    [0,14500],
    [0,15000],
    [0,15500],
    [500,0],
    [500,500],
    [500,1000],
    [500,1500],
    [500,2000],
    [500,2500],
    [500,3000],
    [500,3500],
    [500,4000],
    [500,4500],
    [500,5000],
    [500,5500],
    [500,6000],
    [500,6500],
    [500,7000],
    [500,7500],
    [500,8000],
    [500,8500],
    [500,9000],
    [500,9500],
    [500,10000],
    [500,10500],
    [500,11000],
    [500,11500],
    [500,12000],
    [500,12500],
    [500,13000],
    [500,13500],
    [500,14000],
    [500,14500],
    [500,15000],
    [500,15500],
    [1000,0],
    [1000,500],
    [1000,1000],
    [1000,1500],
    [1000,2000],
    [1000,2500],
    [1000,3000],
    [1000,3500],
    [1000,4000],
    [1000,4500],
    [1000,5000],
    [1000,5500],
    [1000,6000],
    [1000,6500],
    [1000,7000],
    [1000,7500],
    [1000,8000],
    [1000,8500],
    [1000,9000],
    [1000,9500],
    [1000,10000],
    [1000,10500],
    [1000,11000],
    [1000,11500],
    [1000,12000],
    [1000,12500],
    [1000,13000],
    [1000,13500],
    [1000,14000],
    [1000,14500],
    [1000,15000],
    [1000,15500],
    [1500,0],
    [1500,500],
    [1500,1000],
    [1500,1500],
    [1500,2000],
    [1500,2500],
    [1500,3000],
    [1500,3500],
    [1500,4000],
    [1500,4500],
    [1500,5000],
    [1500,5500],
    [1500,6000],
    [1500,6500],
    [1500,7000],
    [1500,7500],
    [1500,8000],
    [1500,8500],
    [1500,9000],
    [1500,9500],
    [1500,10000],
    [1500,10500],
    [1500,11000],
    [1500,11500],
    [1500,12000],
    [1500,12500],
    [1500,13000],
    [1500,13500],
    [1500,14000],
    [1500,14500],
    [1500,15000],
    [1500,15500],
    [2000,0],
    [2000,500],
    [2000,1000],
    [2000,1500],
    [2000,2000],
    [2000,2500],
    [2000,3000],
    [2000,3500],
    [2000,4000],
    [2000,4500],
    [2000,5000],
    [2000,5500],
    [2000,6000],
    [2000,6500],
    [2000,7000],
    [2000,7500],
    [2000,8000],
    [2000,8500],
    [2000,9000],
    [2000,9500],
    [2000,10000],
    [2000,10500],
    [2000,11000],
    [2000,11500],
    [2000,12000],
    [2000,12500],
    [2000,13000],
    [2000,13500],
    [2000,14000],
    [2000,14500],
    [2000,15000],
    [2000,15500],
    [2500,0],
    [2500,500],
    [2500,1000],
    [2500,1500],
    [2500,2000],
    [2500,2500],
    [2500,3000],
    [2500,3500],
    [2500,4000],
    [2500,4500],
    [2500,5000],
    [2500,5500],
    [2500,6000],
    [2500,6500],
    [2500,7000],
    [2500,7500],
    [2500,8000],
    [2500,8500],
    [2500,9000],
    [2500,9500],
    [2500,10000],
    [2500,10500],
    [2500,11000],
    [2500,11500],
    [2500,12000],
    [2500,12500],
    [2500,13000],
    [2500,13500],
    [2500,14000],
    [2500,14500],
    [2500,15000],
    [2500,15500],
    [3000,0],
    [3000,500],
    [3000,1000],
    [3000,1500],
    [3000,2000],
    [3000,2500],
    [3000,3000],
    [3000,3500],
    [3000,4000],
    [3000,4500],
    [3000,5000],
    [3000,5500],
    [3000,6000],
    [3000,6500],
    [3000,7000],
    [3000,7500],
    [3000,8000],
    [3000,8500],
    [3000,9000],
    [3000,9500],
    [3000,10000],
    [3000,10500],
    [3000,11000],
    [3000,11500],
    [3000,12000],
    [3000,12500],
    [3000,13000],
    [3000,13500],
    [3000,14000],
    [3000,14500],
    [3000,15000],
    [3000,15500],
    [3500,0],
    [3500,500],
    [3500,1000],
    [3500,1500],
    [3500,2000],
    [3500,2500],
    [3500,3000],
    [3500,3500],
    [3500,4000],
    [3500,4500],
    [3500,5000],
    [3500,5500],
    [3500,6000],
    [3500,6500],
    [3500,7000],
    [3500,7500],
    [3500,8000],
    [3500,8500],
    [3500,9000],
    [3500,9500],
    [3500,10000],
    [3500,10500],
    [3500,11000],
    [3500,11500],
    [3500,12000],
    [3500,12500],
    [3500,13000],
    [3500,13500],
    [3500,14000],
    [3500,14500],
    [3500,15000],
    [3500,15500],
    [4000,0],
    [4000,500],
    [4000,1000],
    [4000,1500],
    [4000,2000],
    [4000,2500],
    [4000,3000],
    [4000,3500],
    [4000,4000],
    [4000,4500],
    [4000,5000],
    [4000,5500],
    [4000,6000],
    [4000,6500],
    [4000,7000],
    [4000,7500],
    [4000,8000],
    [4000,8500],
    [4000,9000],
    [4000,9500],
    [4000,10000],
    [4000,10500],
    [4000,11000],
    [4000,11500],
    [4000,12000],
    [4000,12500],
    [4000,13000],
    [4000,13500],
    [4000,14000],
    [4000,14500],
    [4000,15000],
    [4000,15500],
    [4500,0],
    [4500,500],
    [4500,1000],
    [4500,1500],
    [4500,2000],
    [4500,2500],
    [4500,3000],
    [4500,3500],
    [4500,4000],
    [4500,4500],
    [4500,5000],
    [4500,5500],
    [4500,6000],
    [4500,6500],
    [4500,7000],
    [4500,7500],
    [4500,8000],
    [4500,8500],
    [4500,9000],
    [4500,9500],
    [4500,10000],
    [4500,10500],
    [4500,11000],
    [4500,11500],
    [4500,12000],
    [4500,12500],
    [4500,13000],
    [4500,13500],
    [4500,14000],
    [4500,14500],
    [4500,15000],
    [4500,15500],
    [5000,0],
    [5000,500],
    [5000,1000],
    [5000,1500],
    [5000,2000],
    [5000,2500],
    [5000,3000],
    [5000,3500],
    [5000,4000],
    [5000,4500],
    [5000,5000],
    [5000,5500],
    [5000,6000],
    [5000,6500],
    [5000,7000],
    [5000,7500],
    [5000,8000],
    [5000,8500],
    [5000,9000],
    [5000,9500],
    [5000,10000],
    [5000,10500],
    [5000,11000],
    [5000,11500],
    [5000,12000],
    [5000,12500],
    [5000,13000],
    [5000,13500],
    [5000,14000],
    [5000,14500],
    [5000,15000],
    [5000,15500],
    [5500,0],
    [5500,500],
    [5500,1000],
    [5500,1500],
    [5500,2000],
    [5500,2500],
    [5500,3000],
    [5500,3500],
    [5500,4000],
    [5500,4500],
    [5500,5000],
    [5500,5500],
    [5500,6000],
    [5500,6500],
    [5500,7000],
    [5500,7500],
    [5500,8000],
    [5500,8500],
    [5500,9000],
    [5500,9500],
    [5500,10000],
    [5500,10500],
    [5500,11000],
    [5500,11500],
    [5500,12000],
    [5500,12500],
    [5500,13000],
    [5500,13500],
    [5500,14000],
    [5500,14500],
    [5500,15000],
    [5500,15500],
    [6000,0],
    [6000,500],
    [6000,1000],
    [6000,1500],
    [6000,2000],
    [6000,2500],
    [6000,3000],
    [6000,3500],
    [6000,4000],
    [6000,4500],
    [6000,5000],
    [6000,5500],
    [6000,6000],
    [6000,6500],
    [6000,7000],
    [6000,7500],
    [6000,8000],
    [6000,8500],
    [6000,9000],
    [6000,9500],
    [6000,10000],
    [6000,10500],
    [6000,11000],
    [6000,11500],
    [6000,12000],
    [6000,12500],
    [6000,13000],
    [6000,13500],
    [6000,14000],
    [6000,14500],
    [6000,15000],
    [6000,15500],
    [6500,0],
    [6500,500],
    [6500,1000],
    [6500,1500],
    [6500,2000],
    [6500,2500],
    [6500,3000],
    [6500,3500],
    [6500,4000],
    [6500,4500],
    [6500,5000],
    [6500,5500],
    [6500,6000],
    [6500,6500],
    [6500,7000],
    [6500,7500],
    [6500,8000],
    [6500,8500],
    [6500,9000],
    [6500,9500],
    [6500,10000],
    [6500,10500],
    [6500,11000],
    [6500,11500],
    [6500,12000],
    [6500,12500],
    [6500,13000],
    [6500,13500],
    [6500,14000],
    [6500,14500],
    [6500,15000],
    [6500,15500],
    [7000,0],
    [7000,500],
    [7000,1000],
    [7000,1500],
    [7000,2000],
    [7000,2500],
    [7000,3000],
    [7000,3500],
    [7000,4000],
    [7000,4500],
    [7000,5000],
    [7000,5500],
    [7000,6000],
    [7000,6500],
    [7000,7000],
    [7000,7500],
    [7000,8000],
    [7000,8500],
    [7000,9000],
    [7000,9500],
    [7000,10000],
    [7000,10500],
    [7000,11000],
    [7000,11500],
    [7000,12000],
    [7000,12500],
    [7000,13000],
    [7000,13500],
    [7000,14000],
    [7000,14500],
    [7000,15000],
    [7000,15500],
    [7500,0],
    [7500,500],
    [7500,1000],
    [7500,1500],
    [7500,2000],
    [7500,2500],
    [7500,3000],
    [7500,3500],
    [7500,4000],
    [7500,4500],
    [7500,5000],
    [7500,5500],
    [7500,6000],
    [7500,6500],
    [7500,7000],
    [7500,7500],
    [7500,8000],
    [7500,8500],
    [7500,9000],
    [7500,9500],
    [7500,10000],
    [7500,10500],
    [7500,11000],
    [7500,11500],
    [7500,12000],
    [7500,12500],
    [7500,13000],
    [7500,13500],
    [7500,14000],
    [7500,14500],
    [7500,15000],
    [7500,15500]]
}